Homework 3 - Subsetting Data and Flow Control in R
…
mod$df.residual

[1] 1702

Extract the residual degrees of freedom (hint: attributes() will help you)

Challenge 7

Fix each of the following common data frame subsetting errors:

Extract observations collected for the year 1957

gapminder[gapminder$year == 1957,]

# A tibble: 142 × 6
   country     continent  year lifeExp      pop gdpPercap
   <fct>       <fct>     <int>   <dbl>    <int>     <dbl>
 1 Afghanistan Asia       1957    30.3  9240934      821.
 2 Albania     Europe     1957    59.3  1476505     1942.
 3 Algeria     Africa     1957    45.7 10270856     3014.
 4 Angola      Africa     1957    32.0  4561361     3828.
 5 Argentina   Americas   1957    64.4 19610538     6857.
 6 Australia   Oceania    1957    70.3  9712569    10950.
 7 Austria     Europe     1957    67.5  6965860     8843.
 8 Bahrain     Asia       1957    53.8   138655    11636.
 9 Bangladesh  Asia       1957    39.3 51365468      662.
10 Belgium     Europe     1957    69.2  8989111     9715.
# … with 132 more rows

Extract all columns except 1 through to 4

gapminder[,-(1:4)]

# A tibble: 1,704 × 2
        pop gdpPercap
      <int>     <dbl>
 1  8425333      779.
 2  9240934      821.
 3 10267083      853.
 4 11537966      836.
 5 13079460      740.
 6 14880372      786.
 7 12881816      978.
 8 13867957      852.
 9 16317921      649.
10 22227415      635.
# … with 1,694 more rows

Extract the rows where the life expectancy is longer the 80 years

gapminder[gapminder$lifeExp > 80,]

# A tibble: 21 × 6
   country          continent  year lifeExp      pop gdpPercap
   <fct>            <fct>     <int>   <dbl>    <int>     <dbl>
 1 Australia        Oceania    2002    80.4 19546792    30688.
 2 Australia        Oceania    2007    81.2 20434176    34435.
 3 Canada           Americas   2007    80.7 33390141    36319.
 4 France           Europe     2007    80.7 61083916    30470.
 5 Hong Kong, China Asia       2002    81.5  6762476    30209.
 6 Hong Kong, China Asia       2007    82.2  6980412    39725.
 7 Iceland          Europe     2002    80.5   288030    31163.
 8 Iceland          Europe     2007    81.8   301931    36181.
 9 Israel           Asia       2007    80.7  6426679    25523.
10 Italy            Europe     2002    80.2 57926999    27968.
# … with 11 more rows

Extract the first row, and the fourth and fifth columns (continent and lifeExp).

gapminder[1, c(4, 5)]

# A tibble: 1 × 2
  lifeExp     pop
    <dbl>   <int>
1    28.8 8425333

Advanced: extract rows that contain information for the years 2002 and 2007

gapminder[gapminder$year %in% c(2002, 2007),]

# A tibble: 284 × 6
   country     continent  year lifeExp      pop gdpPercap
   <fct>       <fct>     <int>   <dbl>    <int>     <dbl>
 1 Afghanistan Asia       2002    42.1 25268405      727.
 2 Afghanistan Asia       2007    43.8 31889923      975.
 3 Albania     Europe     2002    75.7  3508512     4604.
 4 Albania     Europe     2007    76.4  3600523     5937.
 5 Algeria     Africa     2002    71.0 31287142     5288.
 6 Algeria     Africa     2007    72.3 33333216     6223.
 7 Angola      Africa     2002    41.0 10866106     2773.
 8 Angola      Africa     2007    42.7 12420476     4797.
 9 Argentina   Americas   2002    74.3 38331121     8798.
10 Argentina   Americas   2007    75.3 40301927    12779.
# … with 274 more rows
…
